^C:\DEV\PROJECTS\COLORITER\COCOS2D\COCOS\AUDIO\WIN32\MCIPLAYER.CPP|C:\DEV\PROJECTS\COLORITER\COCOS2D\COCOS\AUDIO\WIN32\SIMPLEAUDIOENGINE.CPP
C:\DEV\PROJECTS\COLORITER\COCOS2D\COCOS\AUDIO\PROJ.WIN32\DEBUG.WIN32\MCIPLAYER.OBJ
C:\DEV\PROJECTS\COLORITER\COCOS2D\COCOS\AUDIO\PROJ.WIN32\DEBUG.WIN32\SIMPLEAUDIOENGINE.OBJ
^C:\DEV\PROJECTS\COLORITER\COCOS2D\COCOS\AUDIO\WIN32\MCIPLAYER.CPP
C:\DEV\PROJECTS\COLORITER\COCOS2D\COCOS\AUDIO\PROJ.WIN32\DEBUG.WIN32\VC120.PDB
^C:\DEV\PROJECTS\COLORITER\COCOS2D\COCOS\AUDIO\WIN32\SIMPLEAUDIOENGINE.CPP
C:\DEV\PROJECTS\COLORITER\COCOS2D\COCOS\AUDIO\PROJ.WIN32\DEBUG.WIN32\VC120.PDB
